%YAML 1.1
%TAG !u! tag:unity3d.com,2011:
--- !u!114 &11400000
MonoBehaviour:
  m_ObjectHideFlags: 0
  m_PrefabParentObject: {fileID: 0}
  m_PrefabInternal: {fileID: 0}
  m_GameObject: {fileID: 0}
  m_Enabled: 1
  m_EditorHideFlags: 0
  m_Script: {fileID: 11500000, guid: 600be36a1df95f6418d508bb1aab0597, type: 3}
  m_Name: Shelf_3
  m_EditorClassIdentifier: 
  itemName: Hylde 3
  itemThumbnail: {fileID: 21300000, guid: 4456c0e6f040729408581f50f1c2a6f4, type: 3}
  itemPrefab: {fileID: 1484120046370828, guid: 97de7387c868034469725a982cfd8420, type: 2}
