%YAML 1.1
%TAG !u! tag:unity3d.com,2011:
--- !u!114 &11400000
MonoBehaviour:
  m_ObjectHideFlags: 0
  m_PrefabParentObject: {fileID: 0}
  m_PrefabInternal: {fileID: 0}
  m_GameObject: {fileID: 0}
  m_Enabled: 1
  m_EditorHideFlags: 0
  m_Script: {fileID: 11500000, guid: 600be36a1df95f6418d508bb1aab0597, type: 3}
  m_Name: Shelf_1
  m_EditorClassIdentifier: 
  itemName: Hylde 1
  itemThumbnail: {fileID: 21300000, guid: de21d3ace37efea4187f09e167a8b213, type: 3}
  itemPrefab: {fileID: 1191132118117422, guid: dde5457b7706c544eacd278ac8f36e9a, type: 2}
