%YAML 1.1
%TAG !u! tag:unity3d.com,2011:
--- !u!114 &11400000
MonoBehaviour:
  m_ObjectHideFlags: 0
  m_PrefabParentObject: {fileID: 0}
  m_PrefabInternal: {fileID: 0}
  m_GameObject: {fileID: 0}
  m_Enabled: 1
  m_EditorHideFlags: 0
  m_Script: {fileID: 11500000, guid: 4f906f0491d377545b09f283afb0e702, type: 3}
  m_Name: LampGroup
  m_EditorClassIdentifier: 
  groupName: Lamper
  groupThumbnail: {fileID: 21300000, guid: 7b1249ef7e372784fbe6e271d6fb4149, type: 3}
  items: []
  disableGroup: 1
