%YAML 1.1
%TAG !u! tag:unity3d.com,2011:
--- !u!114 &11400000
MonoBehaviour:
  m_ObjectHideFlags: 0
  m_PrefabParentObject: {fileID: 0}
  m_PrefabInternal: {fileID: 0}
  m_GameObject: {fileID: 0}
  m_Enabled: 1
  m_EditorHideFlags: 0
  m_Script: {fileID: 11500000, guid: 4f906f0491d377545b09f283afb0e702, type: 3}
  m_Name: ShopFittings
  m_EditorClassIdentifier: 
  groupName: Inventar
  groupThumbnail: {fileID: 21300000, guid: 136023e84f7f08e4c99f85fe4ce7a8f3, type: 3}
  items:
  - {fileID: 11400000, guid: 47c28eab2bb81a74592b086a7e8d3928, type: 2}
  - {fileID: 11400000, guid: 3b968486de589e64f824cd3986dc20b0, type: 2}
  - {fileID: 11400000, guid: 459ef3c2c3409c643b8be20f294a8ccf, type: 2}
  disableGroup: 0
