%YAML 1.1
%TAG !u! tag:unity3d.com,2011:
--- !u!114 &11400000
MonoBehaviour:
  m_ObjectHideFlags: 0
  m_PrefabParentObject: {fileID: 0}
  m_PrefabInternal: {fileID: 0}
  m_GameObject: {fileID: 0}
  m_Enabled: 1
  m_EditorHideFlags: 0
  m_Script: {fileID: 11500000, guid: 600be36a1df95f6418d508bb1aab0597, type: 3}
  m_Name: Product_5
  m_EditorClassIdentifier: 
  itemName: Morgenmad
  itemThumbnail: {fileID: 21300000, guid: ed32dc722827968439555b144ec4de91, type: 3}
  itemPrefab: {fileID: 1077489440733162, guid: 7b48d25b1e3cd75418f7e8f4a48e67e9, type: 2}
