%YAML 1.1
%TAG !u! tag:unity3d.com,2011:
--- !u!114 &11400000
MonoBehaviour:
  m_ObjectHideFlags: 0
  m_PrefabParentObject: {fileID: 0}
  m_PrefabInternal: {fileID: 0}
  m_GameObject: {fileID: 0}
  m_Enabled: 1
  m_EditorHideFlags: 0
  m_Script: {fileID: 11500000, guid: 600be36a1df95f6418d508bb1aab0597, type: 3}
  m_Name: Product_3
  m_EditorClassIdentifier: 
  itemName: Vin
  itemThumbnail: {fileID: 21300000, guid: 8a988013964459344be197016dea232a, type: 3}
  itemPrefab: {fileID: 1427567491576432, guid: cf6126361b6ac5844994c47006231c2f, type: 2}
